Name,WeightClassKg,Division,Sex,Best3BenchKg,TotalKg,Event,Equipment,Place
Karen Poyner,48,Open,F,54.43,54.43,B,Raw,1
Karen Poyner,48,Masters 45-49,F,54.43,54.43,B,Raw,1
K. Self,56,Open,F,61.24,61.24,B,Raw,1
Kelly Wescott,60,Masters 45-49,F,68.04,68.04,B,Raw,1
A. Green,67.5,Open,F,58.97,58.97,B,Raw,1
M. Lesveque,67.5,Submasters 35-39,F,52.16,52.16,B,Raw,1
B. Pattrick,75,Open,F,49.9,49.9,B,Raw,1
B. Pattrick,75,Teen 14-15,F,49.9,49.9,B,Raw,1
B. Roby,75,Masters 50-54,F,61.24,61.24,B,Raw,1
S. Gurganus,90+,Masters 40-44,F,77.11,77.11,B,Raw,1
J. Mims,30,Youth 8-9,M,24.95,24.95,B,Raw,1
Q. Thomas,40,Youth 10-11,M,29.48,29.48,B,Raw,1
J. Morton,44.5,Teen 16-17,M,45.36,45.36,B,Raw,1
E. Nelliger,56,Open,M,106.59,106.59,B,Raw,1
H. Claypatch,56,Open,M,86.18,86.18,B,Raw,2
C. Chalk,56,Open,M,61.24,61.24,B,Raw,3
H. Claypatch,56,Teen 18-19,M,86.18,86.18,B,Raw,1
C. Chalk,56,Teen 18-19,M,61.24,61.24,B,Raw,2
Marvin Perry,60,Open,M,127.01,127.01,B,Raw,1
Byron Swain,60,Open,M,88.45,88.45,B,Raw,2
Byron Swain,60,Masters 65-69,M,88.45,88.45,B,Raw,1
W. Claypatch,67.5,Open,M,113.4,113.4,B,Raw,1
L. Gagon,67.5,Open,M,86.18,86.18,B,Raw,2
D. Jones #5,67.5,Open,M,79.38,79.38,B,Raw,3
Ben Zak,67.5,Open,M,74.84,74.84,B,Raw,4
L. Gagnon,67.5,Teen 16-17,M,97.52,97.52,B,Raw,1
D. Jones #5,67.5,Teen 16-17,M,79.38,79.38,B,Raw,2
Ben Zak,67.5,Submasters 35-39,M,74.84,74.84,B,Raw,1
W. Claypatch,67.5,Masters 45-49,M,113.4,113.4,B,Raw,1
Dana Sqroi,75,Open,M,136.08,136.08,B,Raw,1
Trey Hague,75,Open,M,127.01,127.01,B,Raw,2
J. Maselbas,75,Open,M,120.2,120.2,B,Raw,3
J. Dunbar,75,Open,M,104.33,104.33,B,Raw,4
J. McGourn,75,Open,M,90.72,90.72,B,Raw,5
D. Craft,75,Teen 14-15,M,90.72,90.72,B,Raw,1
J. McGourn,75,Teen 16-17,M,90.72,90.72,B,Raw,1
Trey Hague,75,Teen 18-19,M,133.81,133.81,B,Raw,1
J. Dunbar,75,Teen 18-19,M,111.13,111.13,B,Raw,2
Jacob Fox,75,Juniors 20-24,M,136.08,136.08,B,Raw,1
J. Maselbas,75,Juniors 20-24,M,115.67,115.67,B,Raw,2
Dana Sqroi,75,Submasters 35-39,M,136.08,136.08,B,Raw,1
Ricky Young,75,Masters 40-44,M,133.81,133.81,B,Raw,1
Fred Wescott,75,Masters 45-49,M,124.74,124.74,B,Raw,1
Will Lynch,82.5,Open,M,190.51,190.51,B,Raw,1
J. Self,82.5,Open,M,165.56,165.56,B,Raw,2
G. Passman,82.5,Open,M,154.22,154.22,B,Raw,3
E. Anderson,82.5,Open,M,120.2,120.2,B,Raw,4
M. Wilson,82.5,Open,M,115.67,115.67,B,Raw,5
J. Dunbar,82.5,Open,M,104.33,104.33,B,Raw,6
D. Daffron,82.5,Teen 14-15,M,65.77,65.77,B,Raw,1
K. Smallwood,82.5,Teen 16-17,M,108.86,108.86,B,Raw,1
L. Lewis,82.5,Teen 16-17,M,95.25,95.25,B,Raw,2
M. Wilson,82.5,Teen 18-19,M,111.13,111.13,B,Raw,1
L. Neese,82.5,Juniors 20-24,M,124.74,124.74,B,Raw,1
E. Anderson,82.5,Juniors 20-24,M,120.2,120.2,B,Raw,2
G. Passman,82.5,Masters 40-44,M,154.22,154.22,B,Raw,1
B. Gabbert,82.5,Masters 50-54,M,131.54,131.54,B,Raw,1
R. Tornabene,82.5,Masters 50-54,M,99.79,99.79,B,Raw,2
J. Wright,90,Open,M,156.49,156.49,B,Raw,1
C. Kennedy,90,Open,M,124.74,124.74,B,Raw,2
Sylvester Freeman,90,Law/Fire/Military,M,174.63,174.63,B,Raw,1
J. Wright,90,Juniors 20-24,M,163.29,163.29,B,Raw,1
Sylvester Freeman,90,Submasters 35-39,M,174.63,174.63,B,Raw,1
John Hawley,90,Submasters 35-39,M,170.1,170.1,B,Raw,2
C. Kennedy,90,Submasters 35-39,M,124.74,124.74,B,Raw,3
T. Bell,90,Masters 45-49,M,115.67,115.67,B,Raw,1
G. Holzmiller,90,Masters 60-64,M,111.13,111.13,B,Raw,1
Paul Bossi,100,Open,M,219.99,219.99,B,Raw,1
C. Pannell,100,Open,M,188.24,188.24,B,Raw,2
T. Broyls,100,Open,M,142.88,142.88,B,Raw,3
J. Thompson #17,100,Law/Fire/Military,M,88.45,88.45,B,Raw,1
Ben Hopkins,100,Teen 14-15,M,165.56,165.56,B,Raw,1
Shaun Hopkins,100,Teen 18-19,M,174.63,174.63,B,Raw,1
C. Pannell,100,Masters 40-44,M,188.24,188.24,B,Raw,1
David Lhota,100,Masters 50-54,M,163.29,163.29,B,Raw,1
R. Spires,100,Masters 60-64,M,136.08,136.08,B,Raw,1
J. Sheehan,100,Masters 75-79,M,111.13,111.13,B,Raw,1
J. Benson,110,Teen 16-17,M,102.06,102.06,B,Raw,1
Trey Manning,110,Teen 18-19,M,170.1,170.1,B,Raw,1
J. Wright,110,Juniors 20-24,M,113.4,113.4,B,Raw,1
Scott Deuel,110,Submasters 35-39,M,138.35,138.35,B,Raw,1
Kenny Burkett,110,Masters 40-44,M,231.33,231.33,B,Raw,1
Giles Russell,110,Masters 45-49,M,199.58,199.58,B,Raw,1
J. Fox,110,Masters 50-54,M,145.15,145.15,B,Raw,1
Roger Ernst,110,Masters 60-64,M,158.76,158.76,B,Raw,1
C. Weichold,110,Masters 65-69,M,111.13,111.13,B,Raw,1
Bernie Jones,125,Open,M,217.72,217.72,B,Raw,1
JJ Cox,125,Open,M,199.58,199.58,B,Raw,2
J. Dishman,125,Law/Fire/Military,M,190.51,190.51,B,Raw,1
CW Betts,125,Teen 16-17,M,92.99,92.99,B,Raw,1
JJ Cox,125,Juniors 20-24,M,199.58,199.58,B,Raw,1
J. Lewis,125,Masters 40-44,M,151.95,151.95,B,Raw,1
J. Dishman,125,Masters 40-44,M,115.67,115.67,B,Raw,2
Joseph Hillard,125,Masters 50-54,M,204.12,204.12,B,Raw,1
J. Rascoe,145,Open,M,204.12,204.12,B,Raw,1
T. Cunningham,145,Open,M,106.59,106.59,B,Raw,2
M. Stidham,145,Law/Fire/Military,M,113.4,113.4,B,Raw,1
R. Beuch,145,Masters 50-54,M,183.71,183.71,B,Raw,1
Herman Canada,145+,Open,M,195.04,195.04,B,Raw,1
M. Turner,145+,Law/Fire/Military,M,161.03,161.03,B,Raw,1
